0 SNES Function norm 8.32828 
    0 KSP Residual norm 8.76638 
    1 KSP Residual norm 1.64893 
    2 KSP Residual norm 0.67691 
    3 KSP Residual norm 0.239449 
    4 KSP Residual norm 0.0408899 
    5 KSP Residual norm 0.00643081 
    6 KSP Residual norm 0.000551706 
    7 KSP Residual norm 6.83256e-05 
    8 KSP Residual norm 5.70019e-06 
    9 KSP Residual norm 5.23554e-07 
   10 KSP Residual norm 7.02609e-08 
   11 KSP Residual norm 4.07116e-09 
  Linear solve converged due to CONVERGED_RTOL iterations 11
  1 SNES Function norm 1.01364e-08 
Nonlinear solve converged due to CONVERGED_FNORM_RELATIVE iterations 1
SNES Object: 1 MPI processes
  type: newtonls
  maximum iterations=50, maximum function evaluations=10000
  tolerances: relative=1e-08, absolute=1e-50, solution=1e-08
  total number of linear solver iterations=11
  total number of function evaluations=2
  norm schedule ALWAYS
  SNESLineSearch Object: 1 MPI processes
    type: bt
      interpolation: cubic
      alpha=1.000000e-04
    maxstep=1.000000e+08, minlambda=1.000000e-12
    tolerances: relative=1.000000e-08, absolute=1.000000e-15, lambda=1.000000e-08
    maximum iterations=40
  KSP Object: 1 MPI processes
    type: gmres
      GMRES: restart=100, using Classical (unmodified) Gram-Schmidt Orthogonalization with no iterative refinement
      GMRES: happy breakdown tolerance 1e-30
    maximum iterations=10000, initial guess is zero
    tolerances:  relative=1e-09, absolute=1e-50, divergence=10000.
    left preconditioning
    using PRECONDITIONED norm type for convergence test
  PC Object: 1 MPI processes
    type: asm
      Additive Schwarz: total subdomain blocks = 4, amount of overlap = 1
      Additive Schwarz: restriction/interpolation type - RESTRICT
      Additive Schwarz: local solve composition type - MULTIPLICATIVE
      Local solve is same for all blocks, in the following KSP and PC objects:
      KSP Object: (sub_) 1 MPI processes
        type: preonly
        maximum iterations=10000, initial guess is zero
        tolerances:  relative=1e-05, absolute=1e-50, divergence=10000.
        left preconditioning
        using NONE norm type for convergence test
      PC Object: (sub_) 1 MPI processes
        type: lu
          out-of-place factorization
          tolerance for zero pivot 2.22045e-14
          matrix ordering: nd
          factor fill ratio given 5., needed 2.40723
            Factored matrix follows:
              Mat Object: 1 MPI processes
                type: seqaij
                rows=69, cols=69
                package used to perform factorization: petsc
                total: nonzeros=999, allocated nonzeros=999
                total number of mallocs used during MatSetValues calls =0
                  not using I-node routines
        linear system matrix = precond matrix:
        Mat Object: 1 MPI processes
          type: seqaij
          rows=69, cols=69
          total: nonzeros=415, allocated nonzeros=415
          total number of mallocs used during MatSetValues calls =0
            not using I-node routines
    linear system matrix = precond matrix:
    Mat Object: 1 MPI processes
      type: seqaij
      rows=225, cols=225
      total: nonzeros=1457, allocated nonzeros=1457
      total number of mallocs used during MatSetValues calls =0
        not using I-node routines
Number of SNES iterations = 1
L_2 Error: 0.00131794